{
  "swagger": "2.0",
  "info": {
    "version": "1.0.0",
    "title": "REST API",
    "description": ""
  },
  "host": "localhost:3000",
  "basePath": "/",
  "tags": [],
  "schemes": [
    "http"
  ],
  "securityDefinitions": {},
  "consumes": [],
  "produces": [],
  "paths": {
    "/postes/create": {
      "post": {
        "tags": [
          {
            "name": "Postes",
            "description": "creating a new poste"
          }
        ],
        "description": "",
        "parameters": [
          {
            "in": "body",
            "name": "body",
            "description": "You should pass here data",
            "required": true,
            "schema": {
              "type": "object",
              "properties": {
                "libelle": {
                  "type": "string"
                },
                "description": {
                  "type": "string"
                },
                "nbre_anne_experience": {
                  "type": "integer"
                },
                "diplome": {
                  "type": "string"
                },
                "place_dispo": {
                  "type": "integer"
                }

              }
            }
          }
        ],
        "responses": {}
      }
    },
    "/postes/find_all": {
      "get": {
        "tags": [
          {
            "name": "Postes",
            "description": "postes list"
          }
        ],
        "description": "",
        "parameters": [],
        "responses": {}
      }
    },
    "/candidats/create": {
      "post": {
        "tags": [
          {
            "name": "Candidats",
            "description": "Create new candidat"
          }
        ],
        "description": "",
        "parameters": [
          {
            "in": "body",
            "name": "body",
            "description": "You should pass here data",
            "required": true,
            "schema": {
              "type": "object",
              "properties": {
                "nom": {
                  "type": "string"
                },
                "prenom": {
                  "type": "string"
                },
                "telephone": {
                  "type": "integer"
                },
                "email": {
                  "type": "string"
                },
                "password": {
                  "type": "string"
                },
                "proffession": {
                  "type": "string"
                }

              }
            }
          }
        ],
        "responses": {}
      }
    },
    "/candidats/find_all": {
      "get": {
        "tags": [
          {
            "name": "Candidats",
            "description": "Candidats list"
          }
        ],
        "description": "",
        "parameters": [],
        "responses": {}
      }
    },
    "/candidats/signin": {
      "post": {
        "tags": [
          {
            "name": "Candidats",
            "description": "Candidat signin"
          }
        ],
        "description": "",
        "parameters": [
          {
            "in": "body",
            "name": "body",
            "description": "You should pass here data",
            "required": true,
            "schema": {
              "type": "object",
              "properties": {
                "telephone": {
                  "type": "integer"
                },
                "password": {
                  "type": "string"
                }

              }
            }
          }
        ],
        "responses": {}
      }
    },
    "/candidats/delete/{id}": {
      "get": {
        "tags": [
          {
            "name": "Candidats",
            "description": "Delete candidat"
          }
        ],
        "description": "",
        "parameters": [
          {
            "name": "id",
            "in": "path",
            "required": true
          }
        ],
        "responses": {}
      }
    },
    "/candidatures/create": {
      "post": {
        "tags": [
          {
            "name": "Candidatures",
            "description": "Create new candidatures"
          }
        ],
        "description": "",
        "parameters": [
          {
            "in": "body",
            "name": "body",
            "description": "You should pass here data",
            "required": true,
            "schema": {
              "type": "object",
              "properties": {
                "candidat_id": {
                  "type": "string"
                },
                "poste_id": {
                  "type": "string"
                },
                "cv": {
                  "type": "string"
                }

              }
            }
          }
        ],
        "responses": {}
      }
    },
    "/candidatures/find_all": {
      "get": {
        "tags": [
          {
            "name": "Candidatures",
            "description": "Candidatures list"
          }
        ],
        "description": "",
        "parameters": [],
        "responses": {}
      }
    },
    "/postes_soumis/create": {
      "post": {
        "tags": [
          {
            "name": "Postes_soumis",
            "description": "create new postes_soumis"
          }
        ],
        "description": "",
        "parameters": [
          {
            "in": "body",
            "name": "body",
            "description": "You should pass here data",
            "required": true,
            "schema": {
              "type": "object",
              "properties": {
                "poste_id": {
                  "type": "string"
                },
                "date_expiration": {
                  "type": "2020-10-02"
                },
                "cv": {
                  "type": "string"
                }

              }
            }
          }
        ],
        "responses": {}
      }
    },
    "/postes_soumis/find_all": {
      "get": {
        "tags": [
          {
            "name": "Postes_soumis",
            "description": "Postes_soumis list"
          }
        ],
        "description": "",
        "parameters": [],
        "responses": {}
      }
    }
  },
  "definitions": {}
}